turn off 0,0 through 0,0
turn on 0,0 through 1,1
turn on 0,0 through 2,2
turn on 0,0 through 3,3
toggle 0,0 through 4,4
toggle 0,0 through 9,9
turn off 5,5 through 9,9
turn off 6,6 through 9,9
turn off 7,7 through 9,9
turn off 8,8 through 9,9